module github.com/majorperfect/guardrails-test/code-scanner

go 1.19

require (
	github.com/gorilla/mux v1.8.0
	github.com/spf13/viper v1.14.0
	github.com/stretchr/testify v1.8.1
	google.golang.org/grpc v1.50.1
)

require (
	github.com/davecgh/go-spew v1.1.1 // indirect
	github.com/google/uuid v1.1.2 // indirect
	github.com/grpc-ecosystem/grpc-gateway/v2 v2.13.0 // indirect
	github.com/jinzhu/inflection v1.0.0 // indirect
	github.com/jinzhu/now v1.1.5 // indirect
	github.com/pmezard/go-difflib v1.0.0 // indirect
	gorm.io/gorm v1.24.1 // indirect
)

require (
	github.com/fsnotify/fsnotify v1.6.0 // indirect
	github.com/golang/protobuf v1.5.2 // indirect
	github.com/hashicorp/hcl v1.0.0 // indirect
	github.com/magiconair/properties v1.8.6 // indirect
	github.com/majorperfect/guardrails-test/code-analyzer v0.0.0-00010101000000-000000000000
	github.com/mitchellh/mapstructure v1.5.0 // indirect
	github.com/pelletier/go-toml v1.9.5 // indirect
	github.com/pelletier/go-toml/v2 v2.0.5 // indirect
	github.com/spf13/afero v1.9.2 // indirect
	github.com/spf13/cast v1.5.0 // indirect
	github.com/spf13/jwalterweatherman v1.1.0 // indirect
	github.com/spf13/pflag v1.0.5 // indirect
	github.com/subosito/gotenv v1.4.1 // indirect
	golang.org/x/net v0.1.0 // indirect
	golang.org/x/sys v0.1.0 // indirect
	golang.org/x/text v0.4.0 // indirect
	google.golang.org/genproto v0.0.0-20221109142239-94d6d90a7d66 // indirect
	google.golang.org/protobuf v1.28.1 // indirect
	gopkg.in/ini.v1 v1.67.0 // indirect
	gopkg.in/yaml.v2 v2.4.0 // indirect
	gopkg.in/yaml.v3 v3.0.1 // indirect
)

replace github.com/majorperfect/guardrails-test/code-analyzer => ../code-analyzer
